<?xml version="1.0" encoding="UTF-8"?>
<svg width="172px" height="38px" viewBox="0 0 172 38" version="1.1" xmlns="http://www.w3.org/2000/svg" xmlns:xlink="http://www.w3.org/1999/xlink">
    <!-- Generator: Sketch 57 (83077) - https://sketch.com -->
    <title>rooeda</title>
    <desc>Created with Sketch.</desc>
    <defs>
        <polygon id="path-1" points="0.0576970473 0.0723285794 29.1520258 0.0723285794 29.1520258 37.6005854 0.0576970473 37.6005854"></polygon>
    </defs>
    <g id="Page-1" stroke="none" stroke-width="1" fill="none" fill-rule="evenodd">
        <g id="About" transform="translate(-644.000000, -61.000000)">
            <g id="navbar" transform="translate(60.000000, 46.000000)">
                <g id="rooeda" transform="translate(584.000000, 15.137111)">
                    <path d="M6.63735575,21.6256497 L6.63735575,36.9963486 L3.50316013e-05,36.9963486 L3.50316013e-05,9.34917536 L6.08841056,9.34917536 L6.08841056,12.0439229 C7.8350862,9.49887707 9.23238,8.7003901 12.076946,8.7003901 L12.5760296,8.7003901 L12.5760296,15.0882858 C8.58359474,15.1880091 6.63735575,17.3339282 6.63735575,21.6256497" id="Fill-1" fill="#FFFFFF"></path>
                    <path d="M28.4457303,14.7887773 C24.1040304,14.7887773 20.4609774,18.5316704 20.4609774,23.0729336 C20.4609774,27.813877 24.0041903,31.55677 28.4955919,31.55677 C32.8872702,31.55677 36.4803448,27.813877 36.4803448,23.1727737 C36.4803448,18.5814152 32.8872702,14.7887773 28.4457303,14.7887773 M28.4457303,37.6450288 C20.3612541,37.6450288 13.773795,31.1575265 13.773795,23.1727737 C13.773795,15.2378824 20.3612541,8.70040178 28.3958686,8.70040178 C36.7298866,8.70040178 43.1676439,15.1380424 43.1676439,23.372337 C43.1676439,31.1575265 36.4803448,37.6450288 28.4457303,37.6450288" id="Fill-3" fill="#FFFFFF"></path>
                    <path d="M60.3844148,14.7887773 C56.0427149,14.7887773 52.3996619,18.5316704 52.3996619,23.0729336 C52.3996619,27.813877 55.9428749,31.55677 60.4342765,31.55677 C64.8259548,31.55677 68.4190293,27.813877 68.4190293,23.1727737 C68.4190293,18.5814152 64.8259548,14.7887773 60.3844148,14.7887773 M60.3844148,37.6450288 C52.2998219,37.6450288 45.7124796,31.1575265 45.7124796,23.1727737 C45.7124796,15.2378824 52.2998219,8.70040178 60.3345532,8.70040178 C68.6685711,8.70040178 75.1063285,15.1380424 75.1063285,23.372337 C75.1063285,31.1575265 68.4190293,37.6450288 60.3844148,37.6450288" id="Fill-5" fill="#FFFFFF"></path>
                    <path d="M92.3230994,14.7887773 C88.380643,14.7887773 85.6857786,16.7350163 84.6378667,20.278346 L99.9584704,20.278346 C99.1101218,16.7350163 96.4152575,14.7887773 92.3230994,14.7887773 M106.246526,26.1171797 L84.83743,26.1171797 C85.6358002,29.4607125 88.5303447,31.55677 92.4728011,31.55677 C95.217527,31.55677 96.8644794,30.8082615 98.5611766,28.8119273 L105.797421,28.8119273 C103.950905,34.5011761 98.2119115,37.6450288 92.6225028,37.6450288 C84.1886448,37.6450288 77.6511641,31.3570899 77.6511641,23.272497 C77.6511641,15.1380424 84.0888047,8.70040178 92.2233761,8.70040178 C100.457554,8.70040178 106.496068,14.9883407 106.496068,23.5720171 C106.496068,24.5700675 106.446089,25.1689911 106.246526,26.1171797" id="Fill-7" fill="#FFFFFF"></path>
                    <g id="Group-11" transform="translate(109.532140, 0.044490)">
                        <mask id="mask-2" fill="white">
                            <use xlink:href="#path-1"></use>
                        </mask>
                        <g id="Clip-10"></g>
                        <path d="M14.8294724,14.394882 C10.2880923,14.394882 6.74487941,18.0879134 6.74487941,22.7789951 C6.74487941,27.6696402 10.3380708,31.5122565 14.9791741,31.5122565 C19.4705757,31.5122565 23.0137886,27.7693635 23.0137886,22.9785585 C23.0137886,18.137775 19.4705757,14.394882 14.8294724,14.394882 L14.8294724,14.394882 Z M23.063767,36.9518468 L23.063767,33.3586555 C20.4187643,36.35304 17.6740384,37.6006321 13.9311453,37.6006321 C6.09609416,37.6006321 0.0576970473,31.2627148 0.0576970473,23.0782818 C0.0576970473,14.7942422 6.14607257,8.30650646 13.8812837,8.30650646 C17.3745182,8.30650646 20.568466,9.60407697 22.514705,11.7499961 L22.514705,0.0723285794 L29.1520258,0.0723285794 L29.1520258,36.9518468 L23.063767,36.9518468 Z" id="Fill-9" fill="#FFFFFF" mask="url(#mask-2)"></path>
                    </g>
                    <path d="M157.297822,14.7887773 C152.556878,14.7887773 149.213229,18.3819686 149.213229,23.4223154 C149.213229,28.2630989 152.556878,31.55677 157.397545,31.55677 C162.438009,31.55677 165.432276,27.9635787 165.432276,23.372337 C165.432276,18.3319902 162.038765,14.7887773 157.297822,14.7887773 L157.297822,14.7887773 Z M165.63184,36.9963603 L165.63184,33.403169 C162.986954,36.3975535 160.341951,37.6450288 156.449356,37.6450288 C148.36488,37.6450288 142.526046,31.6066317 142.526046,23.272497 C142.526046,14.8387557 148.414742,8.70040178 156.599175,8.70040178 C160.591493,8.70040178 163.336219,9.99797229 165.63184,13.0421017 L165.63184,9.34918704 L171.720215,9.34918704 L171.720215,36.9963603 L165.63184,36.9963603 Z" id="Fill-12" fill="#FFFFFF"></path>
                </g>
            </g>
        </g>
    </g>
</svg>