<?xml version="1.0" encoding="UTF-8"?>
<svg width="16px" height="22px" viewBox="0 0 16 22" version="1.1" xmlns="http://www.w3.org/2000/svg" xmlns:xlink="http://www.w3.org/1999/xlink">
    <!-- Generator: Sketch 57 (83077) - https://sketch.com -->
    <title>Components/Icon/24px</title>
    <desc>Created with Sketch.</desc>
    <g id="Page-1" stroke="none" stroke-width="1" fill="none" fill-rule="evenodd">
        <g id="Footer" transform="translate(-128.000000, -606.000000)" fill="#A8A8A8">
            <g id="Components/Icon/24px" transform="translate(124.000000, 605.000000)">
                <g id="Actions-/-Toggle-/-locked-/-24">
                    <path d="M17.7600002,10.3600001 L16.2800002,10.3600001 L16.2800002,5.92000008 C16.2800002,3.46785576 14.2921445,1.48000002 11.8400002,1.48000002 C9.38785583,1.48000002 7.4000001,3.46785576 7.4000001,5.92000008 L7.4000001,10.3600001 L5.92000008,10.3600001 C5.10261864,10.3600001 4.44000006,11.0226187 4.44000006,11.8400002 L4.44000006,20.7200003 C4.44000006,21.5373817 5.10261864,22.2000003 5.92000008,22.2000003 L17.7600002,22.2000003 C18.5773817,22.2000003 19.2400002,21.5373817 19.2400002,20.7200003 L19.2400002,11.8400002 C19.2400002,11.0226187 18.5773817,10.3600001 17.7600002,10.3600001 Z M8.88000011,5.92000008 C8.88000011,4.2852372 10.2052373,2.96000004 11.8400002,2.96000004 C13.474763,2.96000004 14.8000002,4.2852372 14.8000002,5.92000008 L14.8000002,10.3600001 L8.88000011,10.3600001 L8.88000011,5.92000008 Z M17.7600002,20.7200003 L5.92000008,20.7200003 L5.92000008,11.8400002 L17.7600002,11.8400002 L17.7600002,20.7200003 Z" id="Fill"></path>
                </g>
            </g>
        </g>
    </g>
</svg>